%YAML 1.1
%TAG !u! tag:unity3d.com,2011:
--- !u!114 &11400000
MonoBehaviour:
  m_ObjectHideFlags: 0
  m_CorrespondingSourceObject: {fileID: 0}
  m_PrefabInstance: {fileID: 0}
  m_PrefabAsset: {fileID: 0}
  m_GameObject: {fileID: 0}
  m_Enabled: 1
  m_EditorHideFlags: 0
  m_Script: {fileID: 11500000, guid: f605a0b326294cbba18fa857ea7efb80, type: 3}
  m_Name: Standing N Primary combo
  m_EditorClassIdentifier: 
  actionExtensionType: 0
  actionName: Standing N Primary combo
  startAnimationId: 55009
  endActionFrame: 36
  counterHitStateOnStart: 1
  events:
  - note: '0: 06 FirstHit (+M+H+Ca)'
    ignoreNormally: 0
    onFrame: 6
    animation:
      changeAnimation: 0
      animationId: 0
    movement:
      changeMovement: 1
      movementData:
        localAcceleration: {x: 0, y: 0, z: 1000}
        targetSpeed: 500
        influencedByDInput: 0
        normalizeDInput: 0
        impactForce: 0
        resetVelocity: 0
        ignoreWeight: 1
    hitboxes:
      changeHitboxes: 1
      hitboxData:
        hitboxes:
        - resetHitFlags: 0
          spheres:
          - center: {x: 697, y: 11101, z: 8493}
            radius: 2998
          - center: {x: 6647, y: 10970, z: 14060}
            radius: 2660
          - center: {x: 2888, y: 11238, z: 11595}
            radius: 2660
          - center: {x: 0, y: 6318, z: 736}
            radius: 6880
          attributes:
            isOverhead: 0
            isLow: 0
            isThrow: 0
            isHigh: 1
          properties:
            damage: 300
            attackLevel: 2
            launcher: 0
            chCrumple: 0
            badStarter: 0
            localKnockback: {x: 0, y: 0, z: 700}
          hitFlags: 
        resetHitFlags: 0
    characterState:
      changeCharacterState: 0
      characterState: 0
      changeCounterHitState: 0
      counterHitState: 0
      disableGroundCheck: 0
    cancels:
      changeActionCancels: 1
      actionCancels:
        resetHitResult: 0
        cancelOn: 1
        jump: 1
        dash: 1
        block: 0
        grab: 1
        primary: 0
        secondary: 1
        melee: 0
        onlyDirectional: 0
        onlyCrouching: 0
        onlyStanding: 0
        specialActionIds: 
  - note: '1: 07 MoveHitvox (+H)'
    ignoreNormally: 0
    onFrame: 7
    animation:
      changeAnimation: 0
      animationId: 0
    movement:
      changeMovement: 0
      movementData:
        localAcceleration: {x: 0, y: 0, z: 0}
        targetSpeed: 0
        influencedByDInput: 0
        normalizeDInput: 0
        impactForce: 0
        resetVelocity: 0
        ignoreWeight: 0
    hitboxes:
      changeHitboxes: 1
      hitboxData:
        hitboxes:
        - resetHitFlags: 0
          spheres:
          - center: {x: -5067, y: 12518, z: 14030}
            radius: 2998
          - center: {x: -367, y: 11042, z: 13972}
            radius: 2660
          - center: {x: -10465, y: 13245, z: 12268}
            radius: 2660
          attributes:
            isOverhead: 0
            isLow: 0
            isThrow: 0
            isHigh: 1
          properties:
            damage: 300
            attackLevel: 2
            launcher: 0
            chCrumple: 1
            badStarter: 0
            localKnockback: {x: 500, y: 0, z: 700}
          hitFlags: 
        resetHitFlags: 0
    characterState:
      changeCharacterState: 0
      characterState: 0
      changeCounterHitState: 0
      counterHitState: 0
      disableGroundCheck: 0
    cancels:
      changeActionCancels: 0
      actionCancels:
        resetHitResult: 0
        cancelOn: 0
        jump: 0
        dash: 0
        block: 0
        grab: 0
        primary: 0
        secondary: 0
        melee: 0
        onlyDirectional: 0
        onlyCrouching: 0
        onlyStanding: 0
        specialActionIds: 
  - note: '2: 10 StopSlide (-M)'
    ignoreNormally: 0
    onFrame: 10
    animation:
      changeAnimation: 0
      animationId: 55010
    movement:
      changeMovement: 1
      movementData:
        localAcceleration: {x: 0, y: 0, z: 0}
        targetSpeed: 0
        influencedByDInput: 0
        normalizeDInput: 0
        impactForce: 0
        resetVelocity: 0
        ignoreWeight: 0
    hitboxes:
      changeHitboxes: 0
      hitboxData:
        hitboxes: []
        resetHitFlags: 0
    characterState:
      changeCharacterState: 0
      characterState: 0
      changeCounterHitState: 0
      counterHitState: 0
      disableGroundCheck: 0
    cancels:
      changeActionCancels: 0
      actionCancels:
        resetHitResult: 0
        cancelOn: 0
        jump: 0
        dash: 0
        block: 0
        grab: 0
        primary: 0
        secondary: 0
        melee: 0
        onlyDirectional: 0
        onlyCrouching: 0
        onlyStanding: 0
        specialActionIds: 
  - note: '3: 12 HideHitbox (-H+Ca)'
    ignoreNormally: 0
    onFrame: 12
    animation:
      changeAnimation: 0
      animationId: 0
    movement:
      changeMovement: 0
      movementData:
        localAcceleration: {x: 0, y: 0, z: 0}
        targetSpeed: 0
        influencedByDInput: 0
        normalizeDInput: 0
        impactForce: 0
        resetVelocity: 0
        ignoreWeight: 0
    hitboxes:
      changeHitboxes: 1
      hitboxData:
        hitboxes: []
        resetHitFlags: 0
    characterState:
      changeCharacterState: 0
      characterState: 0
      changeCounterHitState: 0
      counterHitState: 0
      disableGroundCheck: 0
    cancels:
      changeActionCancels: 1
      actionCancels:
        resetHitResult: 1
        cancelOn: 2
        jump: 0
        dash: 0
        block: 0
        grab: 1
        primary: 0
        secondary: 1
        melee: 0
        onlyDirectional: 0
        onlyCrouching: 0
        onlyStanding: 0
        specialActionIds: 
  - note: '4: 12 NewAnim (A+M)'
    ignoreNormally: 0
    onFrame: 12
    animation:
      changeAnimation: 1
      animationId: 55010
    movement:
      changeMovement: 1
      movementData:
        localAcceleration: {x: 0, y: 0, z: 2000}
        targetSpeed: 600
        influencedByDInput: 0
        normalizeDInput: 0
        impactForce: 0
        resetVelocity: 0
        ignoreWeight: 1
    hitboxes:
      changeHitboxes: 0
      hitboxData:
        hitboxes: []
        resetHitFlags: 0
    characterState:
      changeCharacterState: 0
      characterState: 0
      changeCounterHitState: 0
      counterHitState: 0
      disableGroundCheck: 0
    cancels:
      changeActionCancels: 0
      actionCancels:
        resetHitResult: 0
        cancelOn: 2
        jump: 0
        dash: 1
        block: 0
        grab: 0
        primary: 0
        secondary: 1
        melee: 0
        onlyDirectional: 0
        onlyCrouching: 0
        onlyStanding: 0
        specialActionIds: 
  - note: '5: 20 SecondHitbox (+H+Ca)'
    ignoreNormally: 0
    onFrame: 20
    animation:
      changeAnimation: 0
      animationId: 55010
    movement:
      changeMovement: 0
      movementData:
        localAcceleration: {x: 0, y: 0, z: 2000}
        targetSpeed: 600
        influencedByDInput: 0
        normalizeDInput: 0
        impactForce: 0
        resetVelocity: 0
        ignoreWeight: 1
    hitboxes:
      changeHitboxes: 1
      hitboxData:
        hitboxes:
        - resetHitFlags: 0
          spheres:
          - center: {x: 187, y: 18630, z: 6756}
            radius: 2984
          - center: {x: 187, y: 13315, z: 7707}
            radius: 2984
          - center: {x: 187, y: 5316, z: 4339}
            radius: 4675
          attributes:
            isOverhead: 0
            isLow: 0
            isThrow: 0
            isHigh: 0
          properties:
            damage: 500
            attackLevel: 3
            launcher: 0
            chCrumple: 1
            badStarter: 0
            localKnockback: {x: 0, y: -1000, z: 500}
          hitFlags: 
        resetHitFlags: 1
    characterState:
      changeCharacterState: 0
      characterState: 0
      changeCounterHitState: 0
      counterHitState: 0
      disableGroundCheck: 0
    cancels:
      changeActionCancels: 1
      actionCancels:
        resetHitResult: 0
        cancelOn: 1
        jump: 0
        dash: 0
        block: 0
        grab: 0
        primary: 0
        secondary: 1
        melee: 0
        onlyDirectional: 0
        onlyCrouching: 0
        onlyStanding: 0
        specialActionIds: 
  - note: '6: 18 Slide2 (+M)'
    ignoreNormally: 0
    onFrame: 18
    animation:
      changeAnimation: 0
      animationId: 55010
    movement:
      changeMovement: 1
      movementData:
        localAcceleration: {x: 0, y: 0, z: 2000}
        targetSpeed: 600
        influencedByDInput: 0
        normalizeDInput: 0
        impactForce: 0
        resetVelocity: 0
        ignoreWeight: 1
    hitboxes:
      changeHitboxes: 0
      hitboxData:
        hitboxes: []
        resetHitFlags: 0
    characterState:
      changeCharacterState: 0
      characterState: 0
      changeCounterHitState: 0
      counterHitState: 0
      disableGroundCheck: 0
    cancels:
      changeActionCancels: 0
      actionCancels:
        resetHitResult: 0
        cancelOn: 0
        jump: 0
        dash: 0
        block: 0
        grab: 0
        primary: 0
        secondary: 0
        melee: 0
        onlyDirectional: 0
        onlyCrouching: 0
        onlyStanding: 0
        specialActionIds: 
  - note: '7: 22 MoveHitbox (+H)'
    ignoreNormally: 0
    onFrame: 22
    animation:
      changeAnimation: 0
      animationId: 55010
    movement:
      changeMovement: 0
      movementData:
        localAcceleration: {x: 0, y: 0, z: 2000}
        targetSpeed: 600
        influencedByDInput: 0
        normalizeDInput: 0
        impactForce: 0
        resetVelocity: 0
        ignoreWeight: 1
    hitboxes:
      changeHitboxes: 1
      hitboxData:
        hitboxes:
        - resetHitFlags: 0
          spheres:
          - center: {x: -2173, y: 10640, z: 11433}
            radius: 3761
          - center: {x: -5470, y: 5128, z: 12968}
            radius: 4168
          - center: {x: 187, y: 5316, z: 5623}
            radius: 4763
          attributes:
            isOverhead: 0
            isLow: 0
            isThrow: 0
            isHigh: 0
          properties:
            damage: 500
            attackLevel: 3
            launcher: 0
            chCrumple: 1
            badStarter: 0
            localKnockback: {x: 0, y: -1000, z: 500}
          hitFlags: 
        resetHitFlags: 0
    characterState:
      changeCharacterState: 0
      characterState: 0
      changeCounterHitState: 0
      counterHitState: 0
      disableGroundCheck: 0
    cancels:
      changeActionCancels: 0
      actionCancels:
        resetHitResult: 0
        cancelOn: 0
        jump: 0
        dash: 0
        block: 0
        grab: 0
        primary: 0
        secondary: 0
        melee: 0
        onlyDirectional: 0
        onlyCrouching: 0
        onlyStanding: 0
        specialActionIds: 
  - note: '8: 26 StopMovement (+M-H-Ch)'
    ignoreNormally: 0
    onFrame: 26
    animation:
      changeAnimation: 0
      animationId: 55010
    movement:
      changeMovement: 1
      movementData:
        localAcceleration: {x: 0, y: 0, z: -2000}
        targetSpeed: 200
        influencedByDInput: 0
        normalizeDInput: 0
        impactForce: 0
        resetVelocity: 0
        ignoreWeight: 1
    hitboxes:
      changeHitboxes: 1
      hitboxData:
        hitboxes: []
        resetHitFlags: 0
    characterState:
      changeCharacterState: 0
      characterState: 0
      changeCounterHitState: 1
      counterHitState: 0
      disableGroundCheck: 0
    cancels:
      changeActionCancels: 0
      actionCancels:
        resetHitResult: 0
        cancelOn: 0
        jump: 0
        dash: 0
        block: 0
        grab: 0
        primary: 0
        secondary: 0
        melee: 0
        onlyDirectional: 0
        onlyCrouching: 0
        onlyStanding: 0
        specialActionIds: 
