%YAML 1.1
%TAG !u! tag:unity3d.com,2011:
--- !u!114 &11400000
MonoBehaviour:
  m_ObjectHideFlags: 0
  m_CorrespondingSourceObject: {fileID: 0}
  m_PrefabInstance: {fileID: 0}
  m_PrefabAsset: {fileID: 0}
  m_GameObject: {fileID: 0}
  m_Enabled: 1
  m_EditorHideFlags: 0
  m_Script: {fileID: 11500000, guid: f605a0b326294cbba18fa857ea7efb80, type: 3}
  m_Name: CrouchingPrimaryB
  m_EditorClassIdentifier: 
  actionExtensionType: 0
  actionName: CrouchingPrimaryB
  startAnimationId: 57001
  endActionFrame: 45
  counterHitStateOnStart: 1
  events:
  - note: '0: 12 HitboxStart (-M+H)'
    ignoreNormally: 0
    onFrame: 12
    animation:
      changeAnimation: 0
      animationId: 0
    movement:
      changeMovement: 1
      movementData:
        localAcceleration: {x: 0, y: 0, z: 0}
        targetSpeed: 0
        influencedByDInput: 0
        normalizeDInput: 0
        impactForce: 0
        resetVelocity: 1
        ignoreWeight: 1
    hitboxes:
      changeHitboxes: 1
      hitboxData:
        hitboxes:
        - resetHitFlags: 0
          spheres:
          - center: {x: 1549, y: 10709, z: 6673}
            radius: 6838
          attributes:
            isOverhead: 0
            isLow: 0
            isThrow: 0
            isHigh: 1
          properties:
            damage: 600
            attackLevel: 5
            launcher: 1
            chCrumple: 0
            badStarter: 0
            localKnockback: {x: 0, y: 3000, z: -500}
          hitFlags: 
        resetHitFlags: 0
    characterState:
      changeCharacterState: 0
      characterState: 0
      changeCounterHitState: 0
      counterHitState: 0
      disableGroundCheck: 0
    cancels:
      changeActionCancels: 0
      actionCancels:
        resetHitResult: 0
        cancelOn: 2
        jump: 0
        dash: 0
        block: 0
        grab: 0
        primary: 0
        secondary: 1
        melee: 0
        onlyDirectional: 0
        onlyCrouching: 0
        onlyStanding: 0
        specialActionIds: 
  - note: '1: 17 HitboxStart (+H)'
    ignoreNormally: 0
    onFrame: 17
    animation:
      changeAnimation: 0
      animationId: 0
    movement:
      changeMovement: 0
      movementData:
        localAcceleration: {x: 0, y: 0, z: 0}
        targetSpeed: 0
        influencedByDInput: 0
        normalizeDInput: 0
        impactForce: 1
        resetVelocity: 0
        ignoreWeight: 1
    hitboxes:
      changeHitboxes: 1
      hitboxData:
        hitboxes:
        - resetHitFlags: 1
          spheres:
          - center: {x: 1325, y: 16494, z: 6287}
            radius: 6838
          attributes:
            isOverhead: 0
            isLow: 0
            isThrow: 0
            isHigh: 1
          properties:
            damage: 500
            attackLevel: 5
            launcher: 1
            chCrumple: 0
            badStarter: 0
            localKnockback: {x: 0, y: 2000, z: -700}
          hitFlags: 
        resetHitFlags: 0
    characterState:
      changeCharacterState: 0
      characterState: 0
      changeCounterHitState: 0
      counterHitState: 0
      disableGroundCheck: 0
    cancels:
      changeActionCancels: 0
      actionCancels:
        resetHitResult: 0
        cancelOn: 2
        jump: 0
        dash: 0
        block: 0
        grab: 0
        primary: 0
        secondary: 1
        melee: 0
        onlyDirectional: 0
        onlyCrouching: 0
        onlyStanding: 0
        specialActionIds: 
  - note: '2: 24 HitboxStart (+H+Ca)'
    ignoreNormally: 0
    onFrame: 24
    animation:
      changeAnimation: 0
      animationId: 0
    movement:
      changeMovement: 0
      movementData:
        localAcceleration: {x: 0, y: 0, z: -1000}
        targetSpeed: 500
        influencedByDInput: 0
        normalizeDInput: 0
        impactForce: 1
        resetVelocity: 0
        ignoreWeight: 1
    hitboxes:
      changeHitboxes: 1
      hitboxData:
        hitboxes:
        - resetHitFlags: 1
          spheres:
          - center: {x: 850, y: 20542, z: -1722}
            radius: 6838
          - center: {x: 850, y: 7827, z: 1918}
            radius: 6838
          attributes:
            isOverhead: 0
            isLow: 0
            isThrow: 0
            isHigh: 1
          properties:
            damage: 1000
            attackLevel: 5
            launcher: 1
            chCrumple: 0
            badStarter: 0
            localKnockback: {x: 0, y: 4000, z: -1000}
          hitFlags: 
        resetHitFlags: 0
    characterState:
      changeCharacterState: 0
      characterState: 0
      changeCounterHitState: 0
      counterHitState: 0
      disableGroundCheck: 0
    cancels:
      changeActionCancels: 1
      actionCancels:
        resetHitResult: 0
        cancelOn: 2
        jump: 0
        dash: 1
        block: 0
        grab: 0
        primary: 0
        secondary: 1
        melee: 0
        onlyDirectional: 0
        onlyCrouching: 0
        onlyStanding: 0
        specialActionIds: 
  - note: '3: 30 Cleanop (-H-Ch)'
    ignoreNormally: 0
    onFrame: 30
    animation:
      changeAnimation: 0
      animationId: 0
    movement:
      changeMovement: 0
      movementData:
        localAcceleration: {x: 0, y: 0, z: 0}
        targetSpeed: 0
        influencedByDInput: 0
        normalizeDInput: 0
        impactForce: 0
        resetVelocity: 0
        ignoreWeight: 0
    hitboxes:
      changeHitboxes: 1
      hitboxData:
        hitboxes: []
        resetHitFlags: 0
    characterState:
      changeCharacterState: 0
      characterState: 0
      changeCounterHitState: 1
      counterHitState: 0
      disableGroundCheck: 0
    cancels:
      changeActionCancels: 0
      actionCancels:
        resetHitResult: 0
        cancelOn: 1
        jump: 0
        dash: 0
        block: 0
        grab: 0
        primary: 0
        secondary: 0
        melee: 0
        onlyDirectional: 0
        onlyCrouching: 0
        onlyStanding: 0
        specialActionIds: 
