%YAML 1.1
%TAG !u! tag:unity3d.com,2011:
--- !u!21 &2100000
Material:
  serializedVersion: 6
  m_ObjectHideFlags: 0
  m_CorrespondingSourceObject: {fileID: 0}
  m_PrefabInstance: {fileID: 0}
  m_PrefabAsset: {fileID: 0}
  m_Name: water
  m_Shader: {fileID: -6465566751694194690, guid: 099c76e6fb51022428c42252ec414211, type: 3}
  m_ShaderKeywords: 
  m_LightmapFlags: 4
  m_EnableInstancingVariants: 0
  m_DoubleSidedGI: 0
  m_CustomRenderQueue: -1
  stringTagMap: {}
  disabledShaderPasses: []
  m_SavedProperties:
    serializedVersion: 3
    m_TexEnvs:
    - Texture2D_25f0e7017e554a1e996dd6fd73349399:
        m_Texture: {fileID: 2800000, guid: 0b3fb12b56d8f094fba63f8a33d8ab04, type: 3}
        m_Scale: {x: 1, y: 1}
        m_Offset: {x: 0, y: 0}
    - Texture2D_2a266399c17b4217a6fcd53d6a00c6d6:
        m_Texture: {fileID: 2800000, guid: 445443a3b20a9ca4bbb24fa8913e12f0, type: 3}
        m_Scale: {x: 1, y: 1}
        m_Offset: {x: 0, y: 0}
    - Texture2D_dc6c39dad912448797189d881f0589b8:
        m_Texture: {fileID: 10906, guid: 0000000000000000f000000000000000, type: 0}
        m_Scale: {x: 1, y: 1}
        m_Offset: {x: 0, y: 0}
    - _Texture2DAsset_acfd82438b7b454992337c6565874f7e_Out_0:
        m_Texture: {fileID: 2800000, guid: 1847c427ebed2b7469dd22667fe6e4e0, type: 3}
        m_Scale: {x: 1, y: 1}
        m_Offset: {x: 0, y: 0}
    - unity_Lightmaps:
        m_Texture: {fileID: 0}
        m_Scale: {x: 1, y: 1}
        m_Offset: {x: 0, y: 0}
    - unity_LightmapsInd:
        m_Texture: {fileID: 0}
        m_Scale: {x: 1, y: 1}
        m_Offset: {x: 0, y: 0}
    - unity_ShadowMasks:
        m_Texture: {fileID: 0}
        m_Scale: {x: 1, y: 1}
        m_Offset: {x: 0, y: 0}
    m_Floats:
    - Vector1_053f1db4ce95440982be2ad2dc90d2cf: 13
    - Vector1_1a14f9827e78431dad3197790684a8fc: 0.7
    - Vector1_26d0ba0041ff418687bb055677be193a: 0.85
    - Vector1_34d37c089cfb47069a5ea2ce40a203ac: 1
    - Vector1_445d5bc16bdf4097b175c2ccff395c9b: 3
    - Vector1_44de2d22a7af413a8b326a79c2251211: 10
    - Vector1_4a90f371966940e68d34255263e4506b: 0.13
    - Vector1_58d50368a6354cb4ad824c9cebc39d00: 0.2
    - Vector1_598d9eb7424b459a9ce69313cbe5b0db: 0.43
    - Vector1_606efd3e25c4487fa5195e7dd93722ff: 45.73
    - Vector1_67fe20378995463898e697ed85c6fef3: 1
    - Vector1_7e80916272474f34becc933d3e95656e: 0
    - Vector1_8b5e99fab90643d4ba568cb486436ccc: 0.01
    - Vector1_8d4e533f989e4d39b524d8e967f1aeae: 0
    - Vector1_a014586d90f24645b8b81b92a8411db8: 6.45
    - Vector1_b2cb5397d4194c9385ff84e1ebbf948e: 0.2
    - Vector1_dcb053b8f7984fc3b64d0e262c867f7d: 1
    - Vector1_ea692fb2797541fbba5464287daac35a: 0.2
    - Vector1_f05b0a09cf6345ac94aaeaab2239aab5: 0
    - Vector1_f14707479ecd4d5d9c68fa1c5483aa3c: 0.5
    - Vector1_f3656aa03bca4e0da8a301e6b042fe00: 0.2
    - Vector1_f36e8faf9d84465e88f7b3e2a9beb930: 1.76
    - Vector1_f4b1c254f7794bf7be84f042c9dce61b: 13
    m_Colors:
    - Color_28236241753942218982174b5c8b81bd: {r: 0.54067284, g: 0.7869864, b: 0.8490566, a: 1}
    - Color_879526499d3343d195656497eebd7963: {r: 0.08627448, g: 0.32528117, b: 0.34117645, a: 1}
    - Color_e7bbba58517245f5bdc75e691cd8e1d3: {r: 0.4528302, g: 0.07475969, b: 0.07475969, a: 0}
    - Vector2_19eefcea9e774dca869084f72cf9d8ed: {r: 0.2, g: 0.2, b: 0, a: 0}
    - Vector2_a717c8710a8240ae8184066e135080d0: {r: 0.05, g: 0.05, b: 0, a: 0}
    - Vector2_c2a5fe90c9504ab9b003f630510db27d: {r: 0.03, g: 0.03, b: 0, a: 0}
    - Vector2_c2a5fe90c9504ab9b003f630510db27d_1: {r: 0.03, g: 0.03, b: 0, a: 0}
    - Vector2_ee622e93c1264a37a7f6855049cb5ffc: {r: 0.01, g: 0, b: 0, a: 0}
    - Vector2_ee622e93c1264a37a7f6855049cb5ffc_1: {r: -0.01, g: -0.01, b: 0, a: 0}
    - Vector3_092e96fcfb2944e780a5ff42aece0285: {r: 0, g: 0, b: 0, a: 0}
    - Vector3_33f8d3a394ed474699b21db196e23ad5: {r: 0.03, g: 0, b: -0.04, a: 0}
    - Vector3_90528e48fd5e4c2a9bb6e35516f2e418: {r: 0.03, g: 0, b: 0.04, a: 0}
    - Vector3_97c4b4c6cbb748b0ad827c6cf9e19844: {r: 0.03, g: 0, b: 0, a: 0}
    - Vector3_9a3271a199c64aeaa78b49396a4b0942: {r: 0.03, g: 0, b: 0.04, a: 0}
    - Vector4_f142f89774c6428a8a975285d75f8614: {r: 1, g: 0.1, b: 0.1, a: 0.1}
  m_BuildTextureStacks: []
