%YAML 1.1
%TAG !u! tag:unity3d.com,2011:
--- !u!114 &11400000
MonoBehaviour:
  m_ObjectHideFlags: 0
  m_CorrespondingSourceObject: {fileID: 0}
  m_PrefabInstance: {fileID: 0}
  m_PrefabAsset: {fileID: 0}
  m_GameObject: {fileID: 0}
  m_Enabled: 1
  m_EditorHideFlags: 0
  m_Script: {fileID: 11500000, guid: f605a0b326294cbba18fa857ea7efb80, type: 3}
  m_Name: GetHitLight1
  m_EditorClassIdentifier: 
  actionExtensionType: 0
  actionName: GetHitLight1
  startAnimationId: 60003
  endActionFrame: 20
  counterHitStateOnStart: 0
  events: []
