%YAML 1.1
%TAG !u! tag:unity3d.com,2011:
--- !u!21 &2100000
Material:
  serializedVersion: 6
  m_ObjectHideFlags: 0
  m_CorrespondingSourceObject: {fileID: 0}
  m_PrefabInstance: {fileID: 0}
  m_PrefabAsset: {fileID: 0}
  m_Name: skybox
  m_Shader: {fileID: 104, guid: 0000000000000000f000000000000000, type: 0}
  m_ShaderKeywords: 
  m_LightmapFlags: 4
  m_EnableInstancingVariants: 0
  m_DoubleSidedGI: 0
  m_CustomRenderQueue: -1
  stringTagMap: {}
  disabledShaderPasses: []
  m_SavedProperties:
    serializedVersion: 3
    m_TexEnvs:
    - _BackTex:
        m_Texture: {fileID: 2800000, guid: 09485c71d5564f24f92d4244bc27b5fc, type: 3}
        m_Scale: {x: 1, y: 1}
        m_Offset: {x: 0, y: 0}
    - _DownTex:
        m_Texture: {fileID: 2800000, guid: 1b733cade4c3ad644b02226637e1cd09, type: 3}
        m_Scale: {x: 1, y: 1}
        m_Offset: {x: 0, y: 0}
    - _FrontTex:
        m_Texture: {fileID: 2800000, guid: e816a17296a9d184ebfff0f3b41205ef, type: 3}
        m_Scale: {x: 1, y: 1}
        m_Offset: {x: 0, y: 0}
    - _LeftTex:
        m_Texture: {fileID: 2800000, guid: f6f3a44b2b12e9a45bc02ff2350c2873, type: 3}
        m_Scale: {x: 1, y: 1}
        m_Offset: {x: 0, y: 0}
    - _MainTex:
        m_Texture: {fileID: 0}
        m_Scale: {x: 1, y: 1}
        m_Offset: {x: 0, y: 0}
    - _RightTex:
        m_Texture: {fileID: 2800000, guid: 76cfeb5d9a2650144902a599ec509800, type: 3}
        m_Scale: {x: 1, y: 1}
        m_Offset: {x: 0, y: 0}
    - _Tex:
        m_Texture: {fileID: 0}
        m_Scale: {x: 1, y: 1}
        m_Offset: {x: 0, y: 0}
    - _UpTex:
        m_Texture: {fileID: 2800000, guid: a6202455a7a564340b2dd1deb92aaa75, type: 3}
        m_Scale: {x: 1, y: 1}
        m_Offset: {x: 0, y: 0}
    m_Floats:
    - _Exposure: 0.81
    - _Rotation: 352.05
    m_Colors:
    - _Color: {r: 1, g: 1, b: 1, a: 1}
    - _Tint: {r: 0.46364364, g: 0.63653564, b: 0.6509434, a: 0.5411765}
  m_BuildTextureStacks: []
