%YAML 1.1
%TAG !u! tag:unity3d.com,2011:
--- !u!114 &11400000
MonoBehaviour:
  m_ObjectHideFlags: 0
  m_CorrespondingSourceObject: {fileID: 0}
  m_PrefabInstance: {fileID: 0}
  m_PrefabAsset: {fileID: 0}
  m_GameObject: {fileID: 0}
  m_Enabled: 1
  m_EditorHideFlags: 0
  m_Script: {fileID: 11500000, guid: a5b854d86e28426e86c814aa03403d30, type: 3}
  m_Name: Stages
  m_EditorClassIdentifier: 
  stageInfoObjects:
  - {fileID: 11400000, guid: 35ea4e3df35163c47af04ae0e75a3021, type: 2}
  - {fileID: 11400000, guid: dd3fba7a421e0024b95f6565ddbe5eb0, type: 2}
  - {fileID: 11400000, guid: 1d571a6ca3e5b2b4e82a820123dda195, type: 2}
