^C:\USERS\DRAYV\DOCUMENTS\UNITY PROJECTS\MECHFIGHTER\BUILD\CMAKEFILES\3.18.4\COMPILERIDC\CMAKECCOMPILERID.C
C:\WINDOWS\GLOBALIZATION\SORTING\SORTDEFAULT.NLS
C:\PROGRAM FILES (X86)\MICROSOFT VISUAL STUDIO\2019\COMMUNITY\VC\TOOLS\MSVC\14.27.29110\BIN\HOSTX64\X64\1033\CLUI.DLL
C:\WINDOWS\SYSTEM32\TZRES.DLL
